0		46240		47328		115600		59160		73984		121104
46240		0		85952		107440		89080		71264		165584
47328		85952		0		160528		88392		69088		109968
115600		107440		160528		0		86360		176784		171904
59160		89080		88392		86360		0		133096		91176
73984		71264		69088		176784		133096		0		178160
121104		165584		109968		171904		91176		178160		0