0		46240		47328		73984		121104		115600		59160
46240		0		85952		71264		165584		107440		89080
47328		85952		0		69088		109968		160528		88392
73984		71264		69088		0		178160		176784		133096
121104		165584		109968		178160		0		171904		91176
115600		107440		160528		176784		171904		0		86360
59160		89080		88392		133096		91176		86360		0